…
data("nbfires", package= "spatstat.data")
sc_path(spatstat::as.owin(nbfires))
#> # A tibble: 6 x 4
#>   object_ type      ncoords_ path_   
#>   <chr>   <chr>        <int> <chr>   
#> 1 1       polygonal      500 293d7515
#> 2 2       polygonal       54 a78cfbf7
#> 3 3       polygonal       92 a9d65a78
#> 4 4       polygonal       79 eb42a1e2
#> 5 5       polygonal       66 4c62667c
#> 6 6       polygonal       80 85e68ff2

print(sc_coord(spatstat::as.owin(nbfires)), n = 5)
#> # A tibble: 871 x 2
#>       x     y
#>   <dbl> <dbl>
#> 1   412   123
#> 2   415   124
#> 3   415   124
#> 4   416   123
#> 5   419   122
#> # ... with 866 more rows
```
…
SC(nbfires_path)
#> $object
#> # A tibble: 1 x 5
#>   type      singular plural multiplier object_ 
#>   <chr>     <chr>    <chr>       <dbl> <chr>   
#> 1 polygonal km       km          0.404 44582f20
#> 
#> $object_link_edge
#> # A tibble: 865 x 2
#>    edge_    object_
#>    <chr>    <chr>  
#>  1 0c064171 1      
#>  2 42196a73 1      
#>  3 cc8b2cc6 1      
#>  4 8540d02b 1      
#>  5 a5969bd7 1      
#>  6 e471f1b6 1      
#>  7 8df7dfcd 1      
#>  8 669a076e 1      
#>  9 94cc0ffc 1      
#> 10 9842c4a9 1      
#> # ... with 855 more rows
#> 
#> $edge
#> # A tibble: 865 x 3
#>    .vertex0 .vertex1 edge_   
#>    <chr>    <chr>    <chr>   
#>  1 22609df3 8b89b657 0c064171
#>  2 8b89b657 3fce0e96 42196a73
#>  3 3fce0e96 795a57bc cc8b2cc6
#>  4 795a57bc 720d2a60 8540d02b
#>  5 720d2a60 70bf02a2 a5969bd7
#>  6 70bf02a2 8ece6cb3 e471f1b6
#>  7 8ece6cb3 9551e64c 8df7dfcd
#>  8 9551e64c a9f6ee60 669a076e
#>  9 a9f6ee60 6ea09904 94cc0ffc
#> 10 6ea09904 cac53ca7 9842c4a9
#> # ... with 855 more rows
#> 
#> $vertex
#> # A tibble: 871 x 3
#>        x     y vertex_ 
#>    <dbl> <dbl> <chr>   
#>  1   412   123 22609df3
#>  2   415   124 8b89b657
#>  3   415   124 3fce0e96
#>  4   416   123 795a57bc
#>  5   419   122 720d2a60
#>  6   424   123 70bf02a2
#>  7   430   125 8ece6cb3
#>  8   431   133 9551e64c
#>  9   436   132 a9f6ee60
#> 10   436   128 6ea09904
#> # ... with 861 more rows
…
