Common Forms for `spatstat` Structures • scspatstat
…
data("nbfires", package= "spatstat")
sc_path(spatstat::as.owin(nbfires))
#> # A tibble: 6 x 2
#>   ncoords_     path
#>      <int>    <chr>
#> 1      500 69a2fcce
#> 2       54 fe58e5b1
#> 3       92 5a060d27
#> 4       79 958dfee9
#> 5       66 792d2fb2
#> 6       80 ef4f8493

print(sc_coord(spatstat::as.owin(nbfires)), n = 5)
#> # A tibble: 871 x 2
#>          x        y
#>      <dbl>    <dbl>
#> 1 411.6245 122.5687
#> 2 415.3799 123.7937
#> 3 415.2395 123.7442
#> 4 415.5546 122.7946
#> 5 419.1725 122.3231
#> # ... with 866 more rows
…
#> 1 polygonal       km     km   0.403716 8a2f69c5
#> 
#> $path
#> # A tibble: 6 x 2
#>   ncoords_     path
#>      <int>    <chr>
#> 1      500 1402e782
#> 2       54 d9781839
#> 3       92 cd353c9f
#> 4       79 c9402c46
#> 5       66 89a344f2
#> 6       80 27c721d6
#> 
#> $vertex
#> # A tibble: 871 x 3
#>           x        y  vertex_
#>       <dbl>    <dbl>    <chr>
#>  1 411.6245 122.5687 e0852577
#>  2 415.3799 123.7937 24ba895f
#>  3 415.2395 123.7442 d64caee4
#>  4 415.5546 122.7946 78ecbeb3
#>  5 419.1725 122.3231 5ce95fad
#>  6 423.8916 122.6374 aec2e08f
#>  7 429.8691 124.8375 a689e004
#>  8 430.6556 133.0094 4802e366
#>  9 435.8466 132.0665 3d229c70
#> 10 436.1612 127.6663 0de63a41
#> # ... with 861 more rows
#> 
#> $path_link_vertex
#> # A tibble: 871 x 2
#>        path  vertex_
#>       <chr>    <chr>
#>  1 1402e782 e0852577
#>  2 1402e782 24ba895f
#>  3 1402e782 d64caee4
#>  4 1402e782 78ecbeb3
#>  5 1402e782 5ce95fad
#>  6 1402e782 aec2e08f
#>  7 1402e782 a689e004
#>  8 1402e782 4802e366
#>  9 1402e782 3d229c70
#> 10 1402e782 0de63a41
#> # ... with 861 more rows
#> 
#> $segment
#> # A tibble: 865 x 4
#>    .vertex0 .vertex1     path segment_
#>       <chr>    <chr>    <chr>    <chr>
#>  1 e0852577 24ba895f 1402e782 c3cdb319
#>  2 24ba895f d64caee4 1402e782 5f31c520
#>  3 d64caee4 78ecbeb3 1402e782 79e1ff6a
#>  4 78ecbeb3 5ce95fad 1402e782 c33669bf
#>  5 5ce95fad aec2e08f 1402e782 32bc76fc
#>  6 aec2e08f a689e004 1402e782 c0b1e10d
#>  7 a689e004 4802e366 1402e782 1bf92181
#>  8 4802e366 3d229c70 1402e782 aaa28162
#>  9 3d229c70 0de63a41 1402e782 4a5cd2fd
#> 10 0de63a41 ed6d0ee8 1402e782 f6fb58e3
#> # ... with 855 more rows
…
