Coord — sc_coord • scspatstat
…
#> Warning: data set ‘urkiola’ not found
#> Warning: data set ‘vesicles’ not found
for (i in seq_along(irreg_data)) {
x <- get(irreg_data[i])
 #plot(x, main = irreg_data[i])
 # title(sub = paste(class(x), collapse = " "))
   if (inherits(x, "solist")) {
   next;
  }
   #print(sc_coord(as.owin(x)))
   #print(sc_path(as.owin(x)))
   #print(sc_object(as.owin(x)))
   print(sc_object(x))
}
#> # A tibble: 1,036 x 2
#>    object_  mark  
#>    <chr>    <fct> 
#>  1 c5a7750e larynx
#>  2 421f0a27 larynx
#>  3 3db84579 larynx
#>  4 9f39f981 larynx
#>  5 8851a98e larynx
#>  6 cd3a85c5 larynx
#>  7 15c4b126 larynx
#>  8 5653db11 larynx
#>  9 299d784e larynx
#> 10 1b094cd0 larynx
#> # ... with 1,026 more rows
#> NULL
#> # A tibble: 112 x 2
#>    object_  mark 
#>    <chr>    <fct>
#>  1 6f1fae44 A    
#>  2 29db4a91 B    
#>  3 9298aa36 B    
#>  4 cfc07c10 A    
#>  5 fc876894 B    
#>  6 0d449cb3 B    
#>  7 2a98d8d4 B    
#>  8 f27afc79 A    
#>  9 ccee7975 A    
#> 10 18fcf588 A    
#> # ... with 102 more rows
#> # A tibble: 99 x 1
#>    object_ 
#>    <chr>   
#>  1 f5164299
#>  2 bcc91eb0
#>  3 1f190fc5
#>  4 a5d0d560
#>  5 09702384
#>  6 c5516750
#>  7 9be57fa9
#>  8 7c02bf18
#>  9 8c91be86
#> 10 c9a05e74
#> # ... with 89 more rows
#> NULL
#> # A tibble: 203 x 2
#>    object_  mark 
#>    <chr>    <fct>
#>  1 3cabc08d case 
#>  2 9fad2830 case 
#>  3 8b9a522d case 
#>  4 cee68754 case 
#>  5 b1993493 case 
#>  6 a6727777 case 
#>  7 82860693 case 
#>  8 bb038c4f case 
#>  9 36aae813 case 
#> 10 9d95c50d case 
#> # ... with 193 more rows
#> NULL
#> # A tibble: 1,245 x 2
#>    object_  mark 
#>    <chr>    <fct>
#>  1 5756a3b1 birch
#>  2 b5e8e72e birch
#>  3 9e093553 birch
#>  4 7c759ec3 birch
#>  5 bcb5ab92 birch
#>  6 411687fc birch
#>  7 ded12729 birch
#>  8 000402a9 birch
#>  9 46a739fa birch
#> 10 9ee350cf birch
#> # ... with 1,235 more rows
#> # A tibble: 37 x 1
#>    object_ 
#>    <chr>   
#>  1 924d46be
#>  2 dc26e810
#>  3 ea9b43ee
#>  4 c087dbb7
#>  5 0c017362
#>  6 625eb20d
#>  7 022ea2b7
#>  8 bd2335a6
#>  9 de1738f5
#> 10 ab0601d9
#> # ... with 27 more rows
…
